<?xml version="1.0" encoding="UTF-8" standalone="no"?>
<!-- Created with Inkscape (http://www.inkscape.org/) -->

<svg
   xmlns:dc="http://purl.org/dc/elements/1.1/"
   xmlns:cc="http://creativecommons.org/ns#"
   xmlns:rdf="http://www.w3.org/1999/02/22-rdf-syntax-ns#"
   xmlns:svg="http://www.w3.org/2000/svg"
   xmlns="http://www.w3.org/2000/svg"
   xmlns:sodipodi="http://sodipodi.sourceforge.net/DTD/sodipodi-0.dtd"
   xmlns:inkscape="http://www.inkscape.org/namespaces/inkscape"
   width="305"
   height="110"
   viewBox="0 0 80.697914 29.104172"
   version="1.1"
   id="svg876"
   inkscape:version="0.92.4 (5da689c313, 2019-01-14)"
   sodipodi:docname="logo.svg">
  <defs
     id="defs870">
    <clipPath
       clipPathUnits="userSpaceOnUse"
       id="clipPath20-6">
      <path
         d="M 0,387.181 H 579.376 V 0 H 0 Z"
         id="path18-1"
         inkscape:connector-curvature="0" />
    </clipPath>
    <clipPath
       clipPathUnits="userSpaceOnUse"
       id="clipPath20-6-1">
      <path
         d="M 0,387.181 H 579.376 V 0 H 0 Z"
         id="path18-1-6"
         inkscape:connector-curvature="0" />
    </clipPath>
  </defs>
  <sodipodi:namedview
     id="base"
     pagecolor="#ffffff"
     bordercolor="#666666"
     borderopacity="1.0"
     inkscape:pageopacity="0.0"
     inkscape:pageshadow="2"
     inkscape:zoom="1.4"
     inkscape:cx="71.354359"
     inkscape:cy="-13.850752"
     inkscape:document-units="px"
     inkscape:current-layer="layer1"
     showgrid="false"
     units="px"
     inkscape:window-width="1920"
     inkscape:window-height="1013"
     inkscape:window-x="-9"
     inkscape:window-y="-9"
     inkscape:window-maximized="1" />
  <metadata
     id="metadata873">
    <rdf:RDF>
      <cc:Work
         rdf:about="">
        <dc:format>image/svg+xml</dc:format>
        <dc:type
           rdf:resource="http://purl.org/dc/dcmitype/StillImage" />
        <dc:title></dc:title>
      </cc:Work>
    </rdf:RDF>
  </metadata>
  <g
     inkscape:label="Capa 1"
     inkscape:groupmode="layer"
     id="layer1"
     transform="translate(0,-267.89583)">
    <g
       id="g14"
       transform="matrix(0.35277784,0,0,-0.35277784,-85.921127,360.93753)"
       inkscape:export-xdpi="230.41"
       inkscape:export-ydpi="230.41">
      <g
         id="g16"
         clip-path="url(#clipPath20-6-1)">
        <g
           id="g22"
           transform="translate(295.0948,248.8448)">
          <path
             d="m 0,0 -5.319,-5.319 22.346,-22.347 c 3.239,-3.239 8.519,-3.859 12.064,-0.96 4.077,3.335 4.301,9.359 0.671,12.988 L 14.125,0 C 10.224,3.9 3.9,3.9 0,0"
             style="fill:#00859b;fill-opacity:1;fill-rule:nonzero;stroke:none"
             id="path24"
             inkscape:connector-curvature="0" />
        </g>
        <g
           id="g26"
           transform="translate(312.4752,220.8252)">
          <path
             d="m 0,0 -22.7,22.7 -9.446,-9.447 c -3.901,-3.9 -3.901,-10.224 0,-14.125 l 15.637,-15.637 c 3.419,-3.419 3.419,-8.962 0,-12.381 l 6.191,6.19 L 6.19,-6.19 12.381,0 C 8.962,-3.419 3.419,-3.419 0,0"
             style="fill:#00c689;fill-opacity:1;fill-rule:nonzero;stroke:none"
             id="path28"
             inkscape:connector-curvature="0" />
        </g>
        <g
           id="g30"
           transform="translate(264.3483,223.8623)">
          <path
             d="m 0,0 c -1.441,-1.441 -3.776,-1.44 -5.217,0 -1.441,1.441 -1.441,3.776 0,5.217 1.441,1.441 3.777,1.441 5.217,0 C 1.441,3.777 1.441,1.441 0,0 M 5.983,24.982 -8.783,10.216 c -3.901,-3.9 -3.9,-10.224 0,-14.124 l 27.666,-27.666 c 3.239,-3.239 8.519,-3.86 12.064,-0.96 4.077,3.334 4.301,9.358 0.671,12.988 L 15.98,-3.909 c -3.9,3.901 -3.9,10.225 0,14.125 l 9.447,9.447 -5.32,5.319 c -3.9,3.901 -10.224,3.901 -14.124,0"
             style="fill:#00ed65;fill-opacity:1;fill-rule:nonzero;stroke:none"
             id="path32"
             inkscape:connector-curvature="0" />
        </g>
      </g>
      <ellipse
         style="opacity:1;fill:#f2f2f2;fill-opacity:1;stroke-width:0.8002162"
         id="path931"
         cx="261.83267"
         cy="-226.52057"
         transform="scale(1,-1)"
         rx="3.8065045"
         ry="3.6977472" />
    </g>
    <text
       style="font-variant:normal;font-weight:600;font-stretch:normal;font-size:11.28888988px;font-family:'Montserrat SemiBold';-inkscape-font-specification:Montserrat-SemiBold;writing-mode:lr-tb;fill:#f2f2f2;fill-opacity:1;fill-rule:nonzero;stroke:none;stroke-width:0.35277781"
       id="text36"
       x="32.214596"
       y="281.05347"
       inkscape:export-xdpi="230.41"
       inkscape:export-ydpi="230.41">
      <tspan
         x="32.214596"
         y="281.05347"
         id="tspan34"
         style="fill:#f2f2f2;fill-opacity:1;stroke-width:0.35277781">Central</tspan>
    </text>
    <text
       style="font-variant:normal;font-weight:600;font-stretch:normal;font-size:11.28888988px;font-family:'Montserrat SemiBold';-inkscape-font-specification:Montserrat-SemiBold;writing-mode:lr-tb;fill:#00ed65;fill-opacity:1;fill-rule:nonzero;stroke:none;stroke-width:0.35277781"
       id="text40"
       x="32.45631"
       y="292.02045"
       inkscape:export-xdpi="230.41"
       inkscape:export-ydpi="230.41">
      <tspan
         x="32.45631"
         y="292.02045"
         id="tspan38"
         style="fill:#00ed65;fill-opacity:1;stroke-width:0.35277781">de</tspan>
    </text>
    <text
       style="font-variant:normal;font-weight:600;font-stretch:normal;font-size:11.28888988px;font-family:'Montserrat SemiBold';-inkscape-font-specification:Montserrat-SemiBold;writing-mode:lr-tb;fill:#f2f2f2;fill-opacity:1;fill-rule:nonzero;stroke:none;stroke-width:0.35277781"
       id="text44"
       x="47.222187"
       y="292.1012"
       inkscape:export-xdpi="230.41"
       inkscape:export-ydpi="230.41">
      <tspan
         style="fill:#f2f2f2;fill-opacity:1;stroke-width:0.35277781"
         sodipodi:role="line"
         id="tspan42"
         x="47.222187"
         y="292.1012">Pago</tspan>
    </text>
  </g>
</svg>
